Tutorial 2
…
simulated_data <-
  tibble(
    # Use 1 through to 338 to represent each division
    "Elected Candidate" = 1:338,
    # Randomly pick an option, with replacement, 338 times
    "Party" = sample(
      x = c("Liberal", "Conservative", "Bloc Québécois", "NDP", "Green"),
      size = 338,
      replace = TRUE
    )
  )

simulated_data

# A tibble: 338 × 2
   `Elected Candidate` Party         
                 <int> <chr>         
 1                   1 Conservative  
 2                   2 Liberal       
 3                   3 NDP           
 4                   4 Bloc Québécois
 5                   5 Green         
 6                   6 Bloc Québécois
 7                   7 Liberal       
 8                   8 Green         
 9                   9 Bloc Québécois
10                  10 Bloc Québécois
# ℹ 328 more rows
…
